%YAML 1.1
%TAG !u! tag:unity3d.com,2011:
--- !u!114 &11400000
MonoBehaviour:
  m_ObjectHideFlags: 0
  m_PrefabParentObject: {fileID: 0}
  m_PrefabInternal: {fileID: 0}
  m_GameObject: {fileID: 0}
  m_Enabled: 1
  m_EditorHideFlags: 0
  m_Script: {fileID: 11500000, guid: 112e2f2a924284573bb470a6908ba97f, type: 3}
  m_Name: Path
  m_EditorClassIdentifier: 
  Points:
  - Point: {x: -0.69999695, y: 0, z: 28.77}
  - Point: {x: 0.20186472, y: 0, z: 75.1556}
  - Point: {x: 36.7, y: 0, z: 122.7}
  - Point: {x: 67.72858, y: 0, z: 152.41693}
  - Point: {x: 84.212814, y: 0, z: 193.63223}
  - Point: {x: 140.51482, y: 0, z: 210.95569}
  - Point: {x: 167.80687, y: 0, z: 189.7576}
  - Point: {x: 170.4, y: 0, z: 159}
  - Point: {x: 170.4, y: 0, z: 114.699646}
  - Point: {x: 145.3, y: 0, z: 74.1}
  - Point: {x: 111.6, y: 0, z: 75.9}
  - Point: {x: 89.75, y: 0, z: 56.78}
  - Point: {x: 76.76028, y: 0, z: 25.2}
  - Point: {x: 97.97574, y: 0, z: -2.1460876}
  - Point: {x: 155.11162, y: 0, z: -0.122528076}
  - Point: {x: 167.25273, y: 0, z: -33.377083}
  - Point: {x: 166.06427, y: 0, z: -70.51862}
  - Point: {x: 150.02634, y: 0, z: -101.82471}
  - Point: {x: 116.94101, y: 0, z: -88.09609}
  - Point: {x: 110.8, y: 0, z: -49.095978}
  - Point: {x: 86.5, y: 0, z: -33.699997}
  - Point: {x: 64, y: 0, z: -41.300003}
  - Point: {x: 52.6, y: 0, z: -68.7}
  - Point: {x: 18.084023, y: 0, z: -80.39523}
  - Point: {x: -0.010002136, y: 0, z: -56.050003}
